Tarea 02
…
Volviendo a las preguntas

5. Crear una tabla resumen de salarios promedios por año

salarios %>% 
  group_by(anio) %>% 
  summarise(total = sum(salario)/1e6)

## `summarise()` ungrouping output (override with `.groups` argument)

## # A tibble: 32 x 2
##     anio total
##    <int> <dbl>
##  1  1985  262.
##  2  1986  308.
##  3  1987  273.
##  4  1988  300.
##  5  1989  360.
##  6  1990  444.
##  7  1991  613.
##  8  1992  806.
##  9  1993  902.
## 10  1994  928.
## # … with 22 more rows
…
## `summarise()` ungrouping output (override with `.groups` argument)

6. Crear una tabla resumen de cantidad de jugadores distintos por año

salarios %>% 
  group_by(anio) %>% 
  summarise(n = n_distinct(id_jugador)) %>% 
  ungroup()

## `summarise()` ungrouping output (override with `.groups` argument)

## # A tibble: 32 x 2
##     anio     n
##    <int> <int>
##  1  1985   550
##  2  1986   727
##  3  1987   624
##  4  1988   662
##  5  1989   710
##  6  1990   867
##  7  1991   685
##  8  1992   765
##  9  1993   914
## 10  1994   877
## # … with 22 more rows
resumen_p6 <- salarios %>% 
  group_by(anio) %>% 
  summarise(n = n_distinct(id_jugador)) %>% 
  ungroup()

## `summarise()` ungrouping output (override with `.groups` argument)

7. Juntar tabla del ejercicio 5 con ejercicio 6.

resumen_p5 %>% 
  left_join(resumen_p6)

## Joining, by = "anio"

## # A tibble: 32 x 3
##     anio total     n
##    <int> <dbl> <int>
##  1  1985  262.   550
##  2  1986  308.   727
##  3  1987  273.   624
##  4  1988  300.   662
##  5  1989  360.   710
##  6  1990  444.   867
##  7  1991  613.   685
##  8  1992  806.   765
##  9  1993  902.   914
## 10  1994  928.   877
## # … with 22 more rows

resumen_p5 %>% 
  left_join(resumen_p6, by = "anio")

## # A tibble: 32 x 3
##     anio total     n
##    <int> <dbl> <int>
##  1  1985  262.   550
##  2  1986  308.   727
##  3  1987  273.   624
##  4  1988  300.   662
##  5  1989  360.   710
##  6  1990  444.   867
##  7  1991  613.   685
##  8  1992  806.   765
##  9  1993  902.   914
## 10  1994  928.   877
## # … with 22 more rows

8. Se puede hacer tabla de pregunta 7 de otra forma?

salarios %>% 
  group_by(anio) %>% 
  summarise(
    total = sum(salario)/1e6,
    n = n_distinct(id_jugador))

## `summarise()` ungrouping output (override with `.groups` argument)

## # A tibble: 32 x 3
##     anio total     n
##    <int> <dbl> <int>
##  1  1985  262.   550
##  2  1986  308.   727
##  3  1987  273.   624
##  4  1988  300.   662
##  5  1989  360.   710
##  6  1990  444.   867
##  7  1991  613.   685
##  8  1992  806.   765
##  9  1993  902.   914
## 10  1994  928.   877
## # … with 22 more rows
